^C:\USERS\MAGSHIMIM\DESKTOP\AGPROJECTTRIVIA\PROJECT\DATABASE.CPP|C:\USERS\MAGSHIMIM\DESKTOP\AGPROJECTTRIVIA\PROJECT\GAME.CPP|C:\USERS\MAGSHIMIM\DESKTOP\AGPROJECTTRIVIA\PROJECT\HELPER.CPP|C:\USERS\MAGSHIMIM\DESKTOP\AGPROJECTTRIVIA\PROJECT\MAGSHDOCUMENT.CPP|C:\USERS\MAGSHIMIM\DESKTOP\AGPROJECTTRIVIA\PROJECT\MTSERVER.CPP|C:\USERS\MAGSHIMIM\DESKTOP\AGPROJECTTRIVIA\PROJECT\QUESTION.CPP|C:\USERS\MAGSHIMIM\DESKTOP\AGPROJECTTRIVIA\PROJECT\RECIEVEDMESSAGE.CPP|C:\USERS\MAGSHIMIM\DESKTOP\AGPROJECTTRIVIA\PROJECT\ROOM.CPP|C:\USERS\MAGSHIMIM\DESKTOP\AGPROJECTTRIVIA\PROJECT\TRIVIAPROJECT.CPP|C:\USERS\MAGSHIMIM\DESKTOP\AGPROJECTTRIVIA\PROJECT\USER.CPP|C:\USERS\MAGSHIMIM\DESKTOP\AGPROJECTTRIVIA\PROJECT\WSAINITIALIZER.CPP
C:\USERS\MAGSHIMIM\DESKTOP\AGPROJECTTRIVIA\PROJECT\DEBUG\VC141.PDB
C:\USERS\MAGSHIMIM\DESKTOP\AGPROJECTTRIVIA\PROJECT\DEBUG\VC141.IDB
C:\USERS\MAGSHIMIM\DESKTOP\AGPROJECTTRIVIA\PROJECT\DEBUG\HELPER.OBJ
C:\USERS\MAGSHIMIM\DESKTOP\AGPROJECTTRIVIA\PROJECT\DEBUG\MAGSHDOCUMENT.OBJ
C:\USERS\MAGSHIMIM\DESKTOP\AGPROJECTTRIVIA\PROJECT\DEBUG\WSAINITIALIZER.OBJ
^C:\USERS\MAGSHIMIM\DESKTOP\AGPROJECTTRIVIA\PROJECT\DATABASE.CPP|C:\USERS\MAGSHIMIM\DESKTOP\AGPROJECTTRIVIA\PROJECT\GAME.CPP|C:\USERS\MAGSHIMIM\DESKTOP\AGPROJECTTRIVIA\PROJECT\MTSERVER.CPP|C:\USERS\MAGSHIMIM\DESKTOP\AGPROJECTTRIVIA\PROJECT\QUESTION.CPP|C:\USERS\MAGSHIMIM\DESKTOP\AGPROJECTTRIVIA\PROJECT\RECIEVEDMESSAGE.CPP|C:\USERS\MAGSHIMIM\DESKTOP\AGPROJECTTRIVIA\PROJECT\ROOM.CPP|C:\USERS\MAGSHIMIM\DESKTOP\AGPROJECTTRIVIA\PROJECT\TRIVIAPROJECT.CPP|C:\USERS\MAGSHIMIM\DESKTOP\AGPROJECTTRIVIA\PROJECT\USER.CPP
C:\USERS\MAGSHIMIM\DESKTOP\AGPROJECTTRIVIA\PROJECT\DEBUG\VC141.PDB
C:\USERS\MAGSHIMIM\DESKTOP\AGPROJECTTRIVIA\PROJECT\DEBUG\VC141.IDB
C:\USERS\MAGSHIMIM\DESKTOP\AGPROJECTTRIVIA\PROJECT\DEBUG\DATABASE.OBJ
^C:\USERS\MAGSHIMIM\DESKTOP\AGPROJECTTRIVIA\PROJECT\DATABASE.CPP|C:\USERS\MAGSHIMIM\DESKTOP\AGPROJECTTRIVIA\PROJECT\GAME.CPP|C:\USERS\MAGSHIMIM\DESKTOP\AGPROJECTTRIVIA\PROJECT\MAGSHDOCUMENT.CPP|C:\USERS\MAGSHIMIM\DESKTOP\AGPROJECTTRIVIA\PROJECT\MTSERVER.CPP|C:\USERS\MAGSHIMIM\DESKTOP\AGPROJECTTRIVIA\PROJECT\QUESTION.CPP|C:\USERS\MAGSHIMIM\DESKTOP\AGPROJECTTRIVIA\PROJECT\RECIEVEDMESSAGE.CPP|C:\USERS\MAGSHIMIM\DESKTOP\AGPROJECTTRIVIA\PROJECT\ROOM.CPP|C:\USERS\MAGSHIMIM\DESKTOP\AGPROJECTTRIVIA\PROJECT\TRIVIAPROJECT.CPP
C:\USERS\MAGSHIMIM\DESKTOP\AGPROJECTTRIVIA\PROJECT\DEBUG\VC141.PDB
C:\USERS\MAGSHIMIM\DESKTOP\AGPROJECTTRIVIA\PROJECT\DEBUG\VC141.IDB
C:\USERS\MAGSHIMIM\DESKTOP\AGPROJECTTRIVIA\PROJECT\DEBUG\TRIVIAPROJECT.OBJ
C:\USERS\MAGSHIMIM\DESKTOP\AGPROJECTTRIVIA\PROJECT\DEBUG\MAGSHDOCUMENT.OBJ
^C:\USERS\MAGSHIMIM\DESKTOP\AGPROJECTTRIVIA\PROJECT\DATABASE.CPP|C:\USERS\MAGSHIMIM\DESKTOP\AGPROJECTTRIVIA\PROJECT\GAME.CPP|C:\USERS\MAGSHIMIM\DESKTOP\AGPROJECTTRIVIA\PROJECT\MTSERVER.CPP|C:\USERS\MAGSHIMIM\DESKTOP\AGPROJECTTRIVIA\PROJECT\QUESTION.CPP|C:\USERS\MAGSHIMIM\DESKTOP\AGPROJECTTRIVIA\PROJECT\RECIEVEDMESSAGE.CPP|C:\USERS\MAGSHIMIM\DESKTOP\AGPROJECTTRIVIA\PROJECT\ROOM.CPP
C:\USERS\MAGSHIMIM\DESKTOP\AGPROJECTTRIVIA\PROJECT\DEBUG\VC141.PDB
C:\USERS\MAGSHIMIM\DESKTOP\AGPROJECTTRIVIA\PROJECT\DEBUG\VC141.IDB
C:\USERS\MAGSHIMIM\DESKTOP\AGPROJECTTRIVIA\PROJECT\DEBUG\ROOM.OBJ
^C:\USERS\MAGSHIMIM\DESKTOP\AGPROJECTTRIVIA\PROJECT\DATABASE.CPP|C:\USERS\MAGSHIMIM\DESKTOP\AGPROJECTTRIVIA\PROJECT\GAME.CPP|C:\USERS\MAGSHIMIM\DESKTOP\AGPROJECTTRIVIA\PROJECT\MTSERVER.CPP|C:\USERS\MAGSHIMIM\DESKTOP\AGPROJECTTRIVIA\PROJECT\QUESTION.CPP|C:\USERS\MAGSHIMIM\DESKTOP\AGPROJECTTRIVIA\PROJECT\RECIEVEDMESSAGE.CPP
C:\USERS\MAGSHIMIM\DESKTOP\AGPROJECTTRIVIA\PROJECT\DEBUG\VC141.PDB
C:\USERS\MAGSHIMIM\DESKTOP\AGPROJECTTRIVIA\PROJECT\DEBUG\VC141.IDB
^C:\USERS\MAGSHIMIM\DESKTOP\AGPROJECTTRIVIA\PROJECT\GAME.CPP|C:\USERS\MAGSHIMIM\DESKTOP\AGPROJECTTRIVIA\PROJECT\MTSERVER.CPP|C:\USERS\MAGSHIMIM\DESKTOP\AGPROJECTTRIVIA\PROJECT\QUESTION.CPP|C:\USERS\MAGSHIMIM\DESKTOP\AGPROJECTTRIVIA\PROJECT\RECIEVEDMESSAGE.CPP|C:\USERS\MAGSHIMIM\DESKTOP\AGPROJECTTRIVIA\PROJECT\ROOM.CPP|C:\USERS\MAGSHIMIM\DESKTOP\AGPROJECTTRIVIA\PROJECT\TRIVIAPROJECT.CPP|C:\USERS\MAGSHIMIM\DESKTOP\AGPROJECTTRIVIA\PROJECT\USER.CPP
C:\USERS\MAGSHIMIM\DESKTOP\AGPROJECTTRIVIA\PROJECT\DEBUG\VC141.PDB
C:\USERS\MAGSHIMIM\DESKTOP\AGPROJECTTRIVIA\PROJECT\DEBUG\VC141.IDB
^C:\USERS\MAGSHIMIM\DESKTOP\AGPROJECTTRIVIA\PROJECT\DATABASE.CPP|C:\USERS\MAGSHIMIM\DESKTOP\AGPROJECTTRIVIA\PROJECT\GAME.CPP|C:\USERS\MAGSHIMIM\DESKTOP\AGPROJECTTRIVIA\PROJECT\MTSERVER.CPP|C:\USERS\MAGSHIMIM\DESKTOP\AGPROJECTTRIVIA\PROJECT\QUESTION.CPP|C:\USERS\MAGSHIMIM\DESKTOP\AGPROJECTTRIVIA\PROJECT\RECIEVEDMESSAGE.CPP|C:\USERS\MAGSHIMIM\DESKTOP\AGPROJECTTRIVIA\PROJECT\ROOM.CPP|C:\USERS\MAGSHIMIM\DESKTOP\AGPROJECTTRIVIA\PROJECT\TRIVIAPROJECT.CPP|C:\USERS\MAGSHIMIM\DESKTOP\AGPROJECTTRIVIA\PROJECT\USER.CPP|C:\USERS\MAGSHIMIM\DESKTOP\AGPROJECTTRIVIA\PROJECT\VALIDATOR.CPP
C:\USERS\MAGSHIMIM\DESKTOP\AGPROJECTTRIVIA\PROJECT\DEBUG\VC141.PDB
C:\USERS\MAGSHIMIM\DESKTOP\AGPROJECTTRIVIA\PROJECT\DEBUG\VC141.IDB
C:\USERS\MAGSHIMIM\DESKTOP\AGPROJECTTRIVIA\PROJECT\DEBUG\QUESTION.OBJ
C:\USERS\MAGSHIMIM\DESKTOP\AGPROJECTTRIVIA\PROJECT\DEBUG\VALIDATOR.OBJ
^C:\USERS\MAGSHIMIM\DESKTOP\AGPROJECTTRIVIA\PROJECT\DATABASE.CPP|C:\USERS\MAGSHIMIM\DESKTOP\AGPROJECTTRIVIA\PROJECT\GAME.CPP|C:\USERS\MAGSHIMIM\DESKTOP\AGPROJECTTRIVIA\PROJECT\HELPER.CPP|C:\USERS\MAGSHIMIM\DESKTOP\AGPROJECTTRIVIA\PROJECT\MAGSHDOCUMENT.CPP|C:\USERS\MAGSHIMIM\DESKTOP\AGPROJECTTRIVIA\PROJECT\MTSERVER.CPP|C:\USERS\MAGSHIMIM\DESKTOP\AGPROJECTTRIVIA\PROJECT\RECIEVEDMESSAGE.CPP|C:\USERS\MAGSHIMIM\DESKTOP\AGPROJECTTRIVIA\PROJECT\ROOM.CPP|C:\USERS\MAGSHIMIM\DESKTOP\AGPROJECTTRIVIA\PROJECT\TRIVIAPROJECT.CPP|C:\USERS\MAGSHIMIM\DESKTOP\AGPROJECTTRIVIA\PROJECT\USER.CPP
C:\USERS\MAGSHIMIM\DESKTOP\AGPROJECTTRIVIA\PROJECT\DEBUG\VC141.PDB
C:\USERS\MAGSHIMIM\DESKTOP\AGPROJECTTRIVIA\PROJECT\DEBUG\VC141.IDB
C:\USERS\MAGSHIMIM\DESKTOP\AGPROJECTTRIVIA\PROJECT\DEBUG\DATABASE.OBJ
C:\USERS\MAGSHIMIM\DESKTOP\AGPROJECTTRIVIA\PROJECT\DEBUG\HELPER.OBJ
C:\USERS\MAGSHIMIM\DESKTOP\AGPROJECTTRIVIA\PROJECT\DEBUG\MAGSHDOCUMENT.OBJ
^C:\USERS\MAGSHIMIM\DESKTOP\AGPROJECTTRIVIA\PROJECT\GAME.CPP|C:\USERS\MAGSHIMIM\DESKTOP\AGPROJECTTRIVIA\PROJECT\MTSERVER.CPP|C:\USERS\MAGSHIMIM\DESKTOP\AGPROJECTTRIVIA\PROJECT\USER.CPP
C:\USERS\MAGSHIMIM\DESKTOP\AGPROJECTTRIVIA\PROJECT\DEBUG\VC141.PDB
C:\USERS\MAGSHIMIM\DESKTOP\AGPROJECTTRIVIA\PROJECT\DEBUG\VC141.IDB
C:\USERS\MAGSHIMIM\DESKTOP\AGPROJECTTRIVIA\PROJECT\DEBUG\USER.OBJ
^C:\USERS\MAGSHIMIM\DESKTOP\AGPROJECTTRIVIA\PROJECT\GAME.CPP|C:\USERS\MAGSHIMIM\DESKTOP\AGPROJECTTRIVIA\PROJECT\MTSERVER.CPP|C:\USERS\MAGSHIMIM\DESKTOP\AGPROJECTTRIVIA\PROJECT\TRIVIAPROJECT.CPP|C:\USERS\MAGSHIMIM\DESKTOP\AGPROJECTTRIVIA\PROJECT\USER.CPP|C:\USERS\MAGSHIMIM\DESKTOP\AGPROJECTTRIVIA\PROJECT\VALIDATOR.CPP
C:\USERS\MAGSHIMIM\DESKTOP\AGPROJECTTRIVIA\PROJECT\DEBUG\VC141.PDB
C:\USERS\MAGSHIMIM\DESKTOP\AGPROJECTTRIVIA\PROJECT\DEBUG\VC141.IDB
C:\USERS\MAGSHIMIM\DESKTOP\AGPROJECTTRIVIA\PROJECT\DEBUG\USER.OBJ
^C:\USERS\MAGSHIMIM\DESKTOP\AGPROJECTTRIVIA\PROJECT\GAME.CPP|C:\USERS\MAGSHIMIM\DESKTOP\AGPROJECTTRIVIA\PROJECT\MTSERVER.CPP|C:\USERS\MAGSHIMIM\DESKTOP\AGPROJECTTRIVIA\PROJECT\VALIDATOR.CPP
C:\USERS\MAGSHIMIM\DESKTOP\AGPROJECTTRIVIA\PROJECT\DEBUG\VC141.PDB
C:\USERS\MAGSHIMIM\DESKTOP\AGPROJECTTRIVIA\PROJECT\DEBUG\VC141.IDB
C:\USERS\MAGSHIMIM\DESKTOP\AGPROJECTTRIVIA\PROJECT\DEBUG\VALIDATOR.OBJ
^C:\USERS\MAGSHIMIM\DESKTOP\AGPROJECTTRIVIA\PROJECT\DATABASE.CPP|C:\USERS\MAGSHIMIM\DESKTOP\AGPROJECTTRIVIA\PROJECT\GAME.CPP|C:\USERS\MAGSHIMIM\DESKTOP\AGPROJECTTRIVIA\PROJECT\HELPER.CPP|C:\USERS\MAGSHIMIM\DESKTOP\AGPROJECTTRIVIA\PROJECT\MAGSHDOCUMENT.CPP|C:\USERS\MAGSHIMIM\DESKTOP\AGPROJECTTRIVIA\PROJECT\MTSERVER.CPP|C:\USERS\MAGSHIMIM\DESKTOP\AGPROJECTTRIVIA\PROJECT\QUESTION.CPP|C:\USERS\MAGSHIMIM\DESKTOP\AGPROJECTTRIVIA\PROJECT\RECIEVEDMESSAGE.CPP|C:\USERS\MAGSHIMIM\DESKTOP\AGPROJECTTRIVIA\PROJECT\ROOM.CPP|C:\USERS\MAGSHIMIM\DESKTOP\AGPROJECTTRIVIA\PROJECT\TRIVIAPROJECT.CPP|C:\USERS\MAGSHIMIM\DESKTOP\AGPROJECTTRIVIA\PROJECT\USER.CPP|C:\USERS\MAGSHIMIM\DESKTOP\AGPROJECTTRIVIA\PROJECT\VALIDATOR.CPP|C:\USERS\MAGSHIMIM\DESKTOP\AGPROJECTTRIVIA\PROJECT\WSAINITIALIZER.CPP
C:\USERS\MAGSHIMIM\DESKTOP\AGPROJECTTRIVIA\PROJECT\DEBUG\VC141.PDB
C:\USERS\MAGSHIMIM\DESKTOP\AGPROJECTTRIVIA\PROJECT\DEBUG\VC141.IDB
C:\USERS\MAGSHIMIM\DESKTOP\AGPROJECTTRIVIA\PROJECT\DEBUG\WSAINITIALIZER.OBJ
C:\USERS\MAGSHIMIM\DESKTOP\AGPROJECTTRIVIA\PROJECT\DEBUG\VALIDATOR.OBJ
C:\USERS\MAGSHIMIM\DESKTOP\AGPROJECTTRIVIA\PROJECT\DEBUG\USER.OBJ
C:\USERS\MAGSHIMIM\DESKTOP\AGPROJECTTRIVIA\PROJECT\DEBUG\TRIVIAPROJECT.OBJ
C:\USERS\MAGSHIMIM\DESKTOP\AGPROJECTTRIVIA\PROJECT\DEBUG\ROOM.OBJ
C:\USERS\MAGSHIMIM\DESKTOP\AGPROJECTTRIVIA\PROJECT\DEBUG\RECIEVEDMESSAGE.OBJ
C:\USERS\MAGSHIMIM\DESKTOP\AGPROJECTTRIVIA\PROJECT\DEBUG\QUESTION.OBJ
C:\USERS\MAGSHIMIM\DESKTOP\AGPROJECTTRIVIA\PROJECT\DEBUG\MAGSHDOCUMENT.OBJ
C:\USERS\MAGSHIMIM\DESKTOP\AGPROJECTTRIVIA\PROJECT\DEBUG\HELPER.OBJ
C:\USERS\MAGSHIMIM\DESKTOP\AGPROJECTTRIVIA\PROJECT\DEBUG\DATABASE.OBJ
^C:\USERS\MAGSHIMIM\DESKTOP\AGPROJECTTRIVIA\PROJECT\HELPER.CPP
C:\USERS\MAGSHIMIM\DESKTOP\AGPROJECTTRIVIA\PROJECT\DEBUG\HELPER.OBJ
^C:\USERS\MAGSHIMIM\DESKTOP\AGPROJECTTRIVIA\PROJECT\MAGSHDOCUMENT.CPP
C:\USERS\MAGSHIMIM\DESKTOP\AGPROJECTTRIVIA\PROJECT\DEBUG\MAGSHDOCUMENT.OBJ
^C:\USERS\MAGSHIMIM\DESKTOP\AGPROJECTTRIVIA\PROJECT\QUESTION.CPP
C:\USERS\MAGSHIMIM\DESKTOP\AGPROJECTTRIVIA\PROJECT\DEBUG\QUESTION.OBJ
^C:\USERS\MAGSHIMIM\DESKTOP\AGPROJECTTRIVIA\PROJECT\WSAINITIALIZER.CPP
C:\USERS\MAGSHIMIM\DESKTOP\AGPROJECTTRIVIA\PROJECT\DEBUG\WSAINITIALIZER.OBJ
^C:\USERS\MAGSHIMIM\DESKTOP\AGPROJECTTRIVIA\PROJECT\GAME.CPP|C:\USERS\MAGSHIMIM\DESKTOP\AGPROJECTTRIVIA\PROJECT\MTSERVER.CPP|C:\USERS\MAGSHIMIM\DESKTOP\AGPROJECTTRIVIA\PROJECT\RECIEVEDMESSAGE.CPP|C:\USERS\MAGSHIMIM\DESKTOP\AGPROJECTTRIVIA\PROJECT\ROOM.CPP|C:\USERS\MAGSHIMIM\DESKTOP\AGPROJECTTRIVIA\PROJECT\TRIVIAPROJECT.CPP|C:\USERS\MAGSHIMIM\DESKTOP\AGPROJECTTRIVIA\PROJECT\USER.CPP
C:\USERS\MAGSHIMIM\DESKTOP\AGPROJECTTRIVIA\PROJECT\DEBUG\VC141.PDB
C:\USERS\MAGSHIMIM\DESKTOP\AGPROJECTTRIVIA\PROJECT\DEBUG\VC141.IDB
C:\USERS\MAGSHIMIM\DESKTOP\AGPROJECTTRIVIA\PROJECT\DEBUG\USER.OBJ
C:\USERS\MAGSHIMIM\DESKTOP\AGPROJECTTRIVIA\PROJECT\DEBUG\TRIVIAPROJECT.OBJ
C:\USERS\MAGSHIMIM\DESKTOP\AGPROJECTTRIVIA\PROJECT\DEBUG\ROOM.OBJ
C:\USERS\MAGSHIMIM\DESKTOP\AGPROJECTTRIVIA\PROJECT\DEBUG\RECIEVEDMESSAGE.OBJ
^C:\USERS\MAGSHIMIM\DESKTOP\AGPROJECTTRIVIA\PROJECT\GAME.CPP|C:\USERS\MAGSHIMIM\DESKTOP\AGPROJECTTRIVIA\PROJECT\MTSERVER.CPP|C:\USERS\MAGSHIMIM\DESKTOP\AGPROJECTTRIVIA\PROJECT\TRIVIAPROJECT.CPP
C:\USERS\MAGSHIMIM\DESKTOP\AGPROJECTTRIVIA\PROJECT\DEBUG\VC141.PDB
C:\USERS\MAGSHIMIM\DESKTOP\AGPROJECTTRIVIA\PROJECT\DEBUG\VC141.IDB
C:\USERS\MAGSHIMIM\DESKTOP\AGPROJECTTRIVIA\PROJECT\DEBUG\TRIVIAPROJECT.OBJ
C:\USERS\MAGSHIMIM\DESKTOP\AGPROJECTTRIVIA\PROJECT\DEBUG\GAME.OBJ
^C:\USERS\MAGSHIMIM\DESKTOP\AGPROJECTTRIVIA\PROJECT\DATABASE.CPP|C:\USERS\MAGSHIMIM\DESKTOP\AGPROJECTTRIVIA\PROJECT\GAME.CPP|C:\USERS\MAGSHIMIM\DESKTOP\AGPROJECTTRIVIA\PROJECT\MTSERVER.CPP|C:\USERS\MAGSHIMIM\DESKTOP\AGPROJECTTRIVIA\PROJECT\RECIEVEDMESSAGE.CPP|C:\USERS\MAGSHIMIM\DESKTOP\AGPROJECTTRIVIA\PROJECT\ROOM.CPP|C:\USERS\MAGSHIMIM\DESKTOP\AGPROJECTTRIVIA\PROJECT\TRIVIAPROJECT.CPP|C:\USERS\MAGSHIMIM\DESKTOP\AGPROJECTTRIVIA\PROJECT\USER.CPP|C:\USERS\MAGSHIMIM\DESKTOP\AGPROJECTTRIVIA\PROJECT\VALIDATOR.CPP
C:\USERS\MAGSHIMIM\DESKTOP\AGPROJECTTRIVIA\PROJECT\DEBUG\VC141.PDB
C:\USERS\MAGSHIMIM\DESKTOP\AGPROJECTTRIVIA\PROJECT\DEBUG\VC141.IDB
C:\USERS\MAGSHIMIM\DESKTOP\AGPROJECTTRIVIA\PROJECT\DEBUG\VALIDATOR.OBJ
C:\USERS\MAGSHIMIM\DESKTOP\AGPROJECTTRIVIA\PROJECT\DEBUG\USER.OBJ
C:\USERS\MAGSHIMIM\DESKTOP\AGPROJECTTRIVIA\PROJECT\DEBUG\TRIVIAPROJECT.OBJ
C:\USERS\MAGSHIMIM\DESKTOP\AGPROJECTTRIVIA\PROJECT\DEBUG\ROOM.OBJ
C:\USERS\MAGSHIMIM\DESKTOP\AGPROJECTTRIVIA\PROJECT\DEBUG\RECIEVEDMESSAGE.OBJ
C:\USERS\MAGSHIMIM\DESKTOP\AGPROJECTTRIVIA\PROJECT\DEBUG\MTSERVER.OBJ
C:\USERS\MAGSHIMIM\DESKTOP\AGPROJECTTRIVIA\PROJECT\DEBUG\GAME.OBJ
C:\USERS\MAGSHIMIM\DESKTOP\AGPROJECTTRIVIA\PROJECT\DEBUG\DATABASE.OBJ
^C:\USERS\MAGSHIMIM\DESKTOP\AGPROJECTTRIVIA\PROJECT\DATABASE.CPP
C:\USERS\MAGSHIMIM\DESKTOP\AGPROJECTTRIVIA\PROJECT\DEBUG\VC141.PDB
^C:\USERS\MAGSHIMIM\DESKTOP\AGPROJECTTRIVIA\PROJECT\GAME.CPP
C:\USERS\MAGSHIMIM\DESKTOP\AGPROJECTTRIVIA\PROJECT\DEBUG\VC141.PDB
^C:\USERS\MAGSHIMIM\DESKTOP\AGPROJECTTRIVIA\PROJECT\RECIEVEDMESSAGE.CPP
C:\USERS\MAGSHIMIM\DESKTOP\AGPROJECTTRIVIA\PROJECT\DEBUG\VC141.PDB
^C:\USERS\MAGSHIMIM\DESKTOP\AGPROJECTTRIVIA\PROJECT\ROOM.CPP
C:\USERS\MAGSHIMIM\DESKTOP\AGPROJECTTRIVIA\PROJECT\DEBUG\VC141.PDB
^C:\USERS\MAGSHIMIM\DESKTOP\AGPROJECTTRIVIA\PROJECT\USER.CPP
C:\USERS\MAGSHIMIM\DESKTOP\AGPROJECTTRIVIA\PROJECT\DEBUG\VC141.PDB
^C:\USERS\MAGSHIMIM\DESKTOP\AGPROJECTTRIVIA\PROJECT\VALIDATOR.CPP
C:\USERS\MAGSHIMIM\DESKTOP\AGPROJECTTRIVIA\PROJECT\DEBUG\VC141.PDB
^C:\USERS\MAGSHIMIM\DESKTOP\AGPROJECTTRIVIA\PROJECT\SQLITE3.C
C:\USERS\MAGSHIMIM\DESKTOP\AGPROJECTTRIVIA\PROJECT\DEBUG\VC141.PDB
C:\USERS\MAGSHIMIM\DESKTOP\AGPROJECTTRIVIA\PROJECT\DEBUG\VC141.IDB
C:\USERS\MAGSHIMIM\DESKTOP\AGPROJECTTRIVIA\PROJECT\DEBUG\SQLITE3.OBJ
^C:\USERS\MAGSHIMIM\DESKTOP\AGPROJECTTRIVIA\PROJECT\MTSERVER.CPP|C:\USERS\MAGSHIMIM\DESKTOP\AGPROJECTTRIVIA\PROJECT\TRIVIAPROJECT.CPP
C:\USERS\MAGSHIMIM\DESKTOP\AGPROJECTTRIVIA\PROJECT\DEBUG\VC141.PDB
C:\USERS\MAGSHIMIM\DESKTOP\AGPROJECTTRIVIA\PROJECT\DEBUG\VC141.IDB
C:\USERS\MAGSHIMIM\DESKTOP\AGPROJECTTRIVIA\PROJECT\DEBUG\TRIVIAPROJECT.OBJ
C:\USERS\MAGSHIMIM\DESKTOP\AGPROJECTTRIVIA\PROJECT\DEBUG\MTSERVER.OBJ
^C:\USERS\MAGSHIMIM\DESKTOP\AGPROJECTTRIVIA\PROJECT\MTSERVER.CPP
C:\USERS\MAGSHIMIM\DESKTOP\AGPROJECTTRIVIA\PROJECT\DEBUG\VC141.PDB
^C:\USERS\MAGSHIMIM\DESKTOP\AGPROJECTTRIVIA\PROJECT\TRIVIAPROJECT.CPP
C:\USERS\MAGSHIMIM\DESKTOP\AGPROJECTTRIVIA\PROJECT\DEBUG\VC141.PDB
^C:\USERS\MAGSHIMIM\DESKTOP\AAA\AGPROJECTTRIVIA\PROJECT\GAME.CPP|C:\USERS\MAGSHIMIM\DESKTOP\AAA\AGPROJECTTRIVIA\PROJECT\VALIDATOR.CPP
C:\USERS\MAGSHIMIM\DESKTOP\AAA\AGPROJECTTRIVIA\PROJECT\DEBUG\VC141.PDB
C:\USERS\MAGSHIMIM\DESKTOP\AAA\AGPROJECTTRIVIA\PROJECT\DEBUG\VC141.IDB
C:\USERS\MAGSHIMIM\DESKTOP\AAA\AGPROJECTTRIVIA\PROJECT\DEBUG\VALIDATOR.OBJ
^C:\USERS\MAGSHIMIM\DESKTOP\AAA\AGPROJECTTRIVIA\PROJECT\DATABASE.CPP|C:\USERS\MAGSHIMIM\DESKTOP\AAA\AGPROJECTTRIVIA\PROJECT\GAME.CPP|C:\USERS\MAGSHIMIM\DESKTOP\AAA\AGPROJECTTRIVIA\PROJECT\HELPER.CPP|C:\USERS\MAGSHIMIM\DESKTOP\AAA\AGPROJECTTRIVIA\PROJECT\MAGSHDOCUMENT.CPP|C:\USERS\MAGSHIMIM\DESKTOP\AAA\AGPROJECTTRIVIA\PROJECT\MTSERVER.CPP|C:\USERS\MAGSHIMIM\DESKTOP\AAA\AGPROJECTTRIVIA\PROJECT\QUESTION.CPP|C:\USERS\MAGSHIMIM\DESKTOP\AAA\AGPROJECTTRIVIA\PROJECT\RECIEVEDMESSAGE.CPP|C:\USERS\MAGSHIMIM\DESKTOP\AAA\AGPROJECTTRIVIA\PROJECT\ROOM.CPP|C:\USERS\MAGSHIMIM\DESKTOP\AAA\AGPROJECTTRIVIA\PROJECT\TRIVIAPROJECT.CPP|C:\USERS\MAGSHIMIM\DESKTOP\AAA\AGPROJECTTRIVIA\PROJECT\USER.CPP|C:\USERS\MAGSHIMIM\DESKTOP\AAA\AGPROJECTTRIVIA\PROJECT\VALIDATOR.CPP|C:\USERS\MAGSHIMIM\DESKTOP\AAA\AGPROJECTTRIVIA\PROJECT\WSAINITIALIZER.CPP
C:\USERS\MAGSHIMIM\DESKTOP\AAA\AGPROJECTTRIVIA\PROJECT\DEBUG\VC141.PDB
C:\USERS\MAGSHIMIM\DESKTOP\AAA\AGPROJECTTRIVIA\PROJECT\DEBUG\VC141.IDB
C:\USERS\MAGSHIMIM\DESKTOP\AAA\AGPROJECTTRIVIA\PROJECT\DEBUG\WSAINITIALIZER.OBJ
C:\USERS\MAGSHIMIM\DESKTOP\AAA\AGPROJECTTRIVIA\PROJECT\DEBUG\VALIDATOR.OBJ
C:\USERS\MAGSHIMIM\DESKTOP\AAA\AGPROJECTTRIVIA\PROJECT\DEBUG\USER.OBJ
C:\USERS\MAGSHIMIM\DESKTOP\AAA\AGPROJECTTRIVIA\PROJECT\DEBUG\TRIVIAPROJECT.OBJ
C:\USERS\MAGSHIMIM\DESKTOP\AAA\AGPROJECTTRIVIA\PROJECT\DEBUG\ROOM.OBJ
C:\USERS\MAGSHIMIM\DESKTOP\AAA\AGPROJECTTRIVIA\PROJECT\DEBUG\RECIEVEDMESSAGE.OBJ
C:\USERS\MAGSHIMIM\DESKTOP\AAA\AGPROJECTTRIVIA\PROJECT\DEBUG\QUESTION.OBJ
C:\USERS\MAGSHIMIM\DESKTOP\AAA\AGPROJECTTRIVIA\PROJECT\DEBUG\MTSERVER.OBJ
C:\USERS\MAGSHIMIM\DESKTOP\AAA\AGPROJECTTRIVIA\PROJECT\DEBUG\MAGSHDOCUMENT.OBJ
C:\USERS\MAGSHIMIM\DESKTOP\AAA\AGPROJECTTRIVIA\PROJECT\DEBUG\HELPER.OBJ
C:\USERS\MAGSHIMIM\DESKTOP\AAA\AGPROJECTTRIVIA\PROJECT\DEBUG\DATABASE.OBJ
^C:\USERS\MAGSHIMIM\DESKTOP\AAA\AGPROJECTTRIVIA\PROJECT\HELPER.CPP
C:\USERS\MAGSHIMIM\DESKTOP\AAA\AGPROJECTTRIVIA\PROJECT\DEBUG\HELPER.OBJ
^C:\USERS\MAGSHIMIM\DESKTOP\AAA\AGPROJECTTRIVIA\PROJECT\MAGSHDOCUMENT.CPP
C:\USERS\MAGSHIMIM\DESKTOP\AAA\AGPROJECTTRIVIA\PROJECT\DEBUG\MAGSHDOCUMENT.OBJ
^C:\USERS\MAGSHIMIM\DESKTOP\AAA\AGPROJECTTRIVIA\PROJECT\QUESTION.CPP
C:\USERS\MAGSHIMIM\DESKTOP\AAA\AGPROJECTTRIVIA\PROJECT\DEBUG\QUESTION.OBJ
^C:\USERS\MAGSHIMIM\DESKTOP\AAA\AGPROJECTTRIVIA\PROJECT\WSAINITIALIZER.CPP
C:\USERS\MAGSHIMIM\DESKTOP\AAA\AGPROJECTTRIVIA\PROJECT\DEBUG\WSAINITIALIZER.OBJ
^C:\USERS\MAGSHIMIM\DESKTOP\AAA\AGPROJECTTRIVIA\PROJECT\DATABASE.CPP|C:\USERS\MAGSHIMIM\DESKTOP\AAA\AGPROJECTTRIVIA\PROJECT\GAME.CPP|C:\USERS\MAGSHIMIM\DESKTOP\AAA\AGPROJECTTRIVIA\PROJECT\MTSERVER.CPP|C:\USERS\MAGSHIMIM\DESKTOP\AAA\AGPROJECTTRIVIA\PROJECT\RECIEVEDMESSAGE.CPP|C:\USERS\MAGSHIMIM\DESKTOP\AAA\AGPROJECTTRIVIA\PROJECT\ROOM.CPP|C:\USERS\MAGSHIMIM\DESKTOP\AAA\AGPROJECTTRIVIA\PROJECT\TRIVIAPROJECT.CPP|C:\USERS\MAGSHIMIM\DESKTOP\AAA\AGPROJECTTRIVIA\PROJECT\USER.CPP
C:\USERS\MAGSHIMIM\DESKTOP\AAA\AGPROJECTTRIVIA\PROJECT\DEBUG\VC141.PDB
C:\USERS\MAGSHIMIM\DESKTOP\AAA\AGPROJECTTRIVIA\PROJECT\DEBUG\VC141.IDB
C:\USERS\MAGSHIMIM\DESKTOP\AAA\AGPROJECTTRIVIA\PROJECT\DEBUG\USER.OBJ
C:\USERS\MAGSHIMIM\DESKTOP\AAA\AGPROJECTTRIVIA\PROJECT\DEBUG\TRIVIAPROJECT.OBJ
C:\USERS\MAGSHIMIM\DESKTOP\AAA\AGPROJECTTRIVIA\PROJECT\DEBUG\ROOM.OBJ
C:\USERS\MAGSHIMIM\DESKTOP\AAA\AGPROJECTTRIVIA\PROJECT\DEBUG\RECIEVEDMESSAGE.OBJ
C:\USERS\MAGSHIMIM\DESKTOP\AAA\AGPROJECTTRIVIA\PROJECT\DEBUG\MTSERVER.OBJ
C:\USERS\MAGSHIMIM\DESKTOP\AAA\AGPROJECTTRIVIA\PROJECT\DEBUG\GAME.OBJ
C:\USERS\MAGSHIMIM\DESKTOP\AAA\AGPROJECTTRIVIA\PROJECT\DEBUG\DATABASE.OBJ
^C:\USERS\MAGSHIMIM\DESKTOP\AAA\AGPROJECTTRIVIA\PROJECT\RECIEVEDMESSAGE.CPP
C:\USERS\MAGSHIMIM\DESKTOP\AAA\AGPROJECTTRIVIA\PROJECT\DEBUG\VC141.PDB
^C:\USERS\MAGSHIMIM\DESKTOP\AAA\AGPROJECTTRIVIA\PROJECT\TRIVIAPROJECT.CPP
C:\USERS\MAGSHIMIM\DESKTOP\AAA\AGPROJECTTRIVIA\PROJECT\DEBUG\VC141.PDB
^C:\USERS\MAGSHIMIM\DESKTOP\AAA\AGPROJECTTRIVIA\PROJECT\USER.CPP
C:\USERS\MAGSHIMIM\DESKTOP\AAA\AGPROJECTTRIVIA\PROJECT\DEBUG\VC141.PDB
^C:\USERS\MAGSHIMIM\DESKTOP\AAA\AGPROJECTTRIVIA\PROJECT\SQLITE3.C
C:\USERS\MAGSHIMIM\DESKTOP\AAA\AGPROJECTTRIVIA\PROJECT\DEBUG\VC141.PDB
C:\USERS\MAGSHIMIM\DESKTOP\AAA\AGPROJECTTRIVIA\PROJECT\DEBUG\VC141.IDB
C:\USERS\MAGSHIMIM\DESKTOP\AAA\AGPROJECTTRIVIA\PROJECT\DEBUG\SQLITE3.OBJ
^C:\USERS\MAGSHIMIM\DESKTOP\AAA\AGPROJECTTRIVIA\PROJECT\VALIDATOR.CPP
C:\USERS\MAGSHIMIM\DESKTOP\AAA\AGPROJECTTRIVIA\PROJECT\DEBUG\VC141.PDB
C:\USERS\MAGSHIMIM\DESKTOP\AAA\AGPROJECTTRIVIA\PROJECT\DEBUG\VC141.IDB
C:\USERS\MAGSHIMIM\DESKTOP\AAA\AGPROJECTTRIVIA\PROJECT\DEBUG\VALIDATOR.OBJ
^C:\USERS\MAGSHIMIM\DESKTOP\AAA\AGPROJECTTRIVIA\PROJECT\MTSERVER.CPP
C:\USERS\MAGSHIMIM\DESKTOP\AAA\AGPROJECTTRIVIA\PROJECT\DEBUG\VC141.PDB
C:\USERS\MAGSHIMIM\DESKTOP\AAA\AGPROJECTTRIVIA\PROJECT\DEBUG\VC141.IDB
C:\USERS\MAGSHIMIM\DESKTOP\AAA\AGPROJECTTRIVIA\PROJECT\DEBUG\MTSERVER.OBJ
^C:\USERS\MAGSHIMIM\DESKTOP\AAA\AGPROJECTTRIVIA\PROJECT\DATABASE.CPP|C:\USERS\MAGSHIMIM\DESKTOP\AAA\AGPROJECTTRIVIA\PROJECT\GAME.CPP
C:\USERS\MAGSHIMIM\DESKTOP\AAA\AGPROJECTTRIVIA\PROJECT\DEBUG\VC141.PDB
C:\USERS\MAGSHIMIM\DESKTOP\AAA\AGPROJECTTRIVIA\PROJECT\DEBUG\VC141.IDB
C:\USERS\MAGSHIMIM\DESKTOP\AAA\AGPROJECTTRIVIA\PROJECT\DEBUG\GAME.OBJ
C:\USERS\MAGSHIMIM\DESKTOP\AAA\AGPROJECTTRIVIA\PROJECT\DEBUG\DATABASE.OBJ
^C:\USERS\MAGSHIMIM\DESKTOP\AAA\AGPROJECTTRIVIA\PROJECT\GAME.CPP
C:\USERS\MAGSHIMIM\DESKTOP\AAA\AGPROJECTTRIVIA\PROJECT\DEBUG\VC141.PDB
^C:\USERS\MAGSHIMIM\DESKTOP\AAA\AGPROJECTTRIVIA\PROJECT\DATABASE.CPP|C:\USERS\MAGSHIMIM\DESKTOP\AAA\AGPROJECTTRIVIA\PROJECT\ROOM.CPP
C:\USERS\MAGSHIMIM\DESKTOP\AAA\AGPROJECTTRIVIA\PROJECT\DEBUG\VC141.PDB
C:\USERS\MAGSHIMIM\DESKTOP\AAA\AGPROJECTTRIVIA\PROJECT\DEBUG\VC141.IDB
C:\USERS\MAGSHIMIM\DESKTOP\AAA\AGPROJECTTRIVIA\PROJECT\DEBUG\ROOM.OBJ
C:\USERS\MAGSHIMIM\DESKTOP\AAA\AGPROJECTTRIVIA\PROJECT\DEBUG\DATABASE.OBJ
^C:\USERS\MAGSHIMIM\DESKTOP\AAA\AGPROJECTTRIVIA\PROJECT\ROOM.CPP
C:\USERS\MAGSHIMIM\DESKTOP\AAA\AGPROJECTTRIVIA\PROJECT\DEBUG\VC141.PDB
^C:\USERS\MAGSHIMIM\DESKTOP\AAA\AGPROJECTTRIVIA\PROJECT\DATABASE.CPP
C:\USERS\MAGSHIMIM\DESKTOP\AAA\AGPROJECTTRIVIA\PROJECT\DEBUG\VC141.PDB
C:\USERS\MAGSHIMIM\DESKTOP\AAA\AGPROJECTTRIVIA\PROJECT\DEBUG\VC141.IDB
C:\USERS\MAGSHIMIM\DESKTOP\AAA\AGPROJECTTRIVIA\PROJECT\DEBUG\DATABASE.OBJ
^C:\USERS\MAGSHIMIM\DESKTOP\PROJECT\AGPROJECTTRIVIA\AGPROJECTTRIVIA\PROJECT\DATABASE.CPP|C:\USERS\MAGSHIMIM\DESKTOP\PROJECT\AGPROJECTTRIVIA\AGPROJECTTRIVIA\PROJECT\GAME.CPP|C:\USERS\MAGSHIMIM\DESKTOP\PROJECT\AGPROJECTTRIVIA\AGPROJECTTRIVIA\PROJECT\HELPER.CPP|C:\USERS\MAGSHIMIM\DESKTOP\PROJECT\AGPROJECTTRIVIA\AGPROJECTTRIVIA\PROJECT\MAGSHDOCUMENT.CPP|C:\USERS\MAGSHIMIM\DESKTOP\PROJECT\AGPROJECTTRIVIA\AGPROJECTTRIVIA\PROJECT\MTSERVER.CPP|C:\USERS\MAGSHIMIM\DESKTOP\PROJECT\AGPROJECTTRIVIA\AGPROJECTTRIVIA\PROJECT\QUESTION.CPP|C:\USERS\MAGSHIMIM\DESKTOP\PROJECT\AGPROJECTTRIVIA\AGPROJECTTRIVIA\PROJECT\RECIEVEDMESSAGE.CPP|C:\USERS\MAGSHIMIM\DESKTOP\PROJECT\AGPROJECTTRIVIA\AGPROJECTTRIVIA\PROJECT\ROOM.CPP|C:\USERS\MAGSHIMIM\DESKTOP\PROJECT\AGPROJECTTRIVIA\AGPROJECTTRIVIA\PROJECT\TRIVIAPROJECT.CPP|C:\USERS\MAGSHIMIM\DESKTOP\PROJECT\AGPROJECTTRIVIA\AGPROJECTTRIVIA\PROJECT\USER.CPP|C:\USERS\MAGSHIMIM\DESKTOP\PROJECT\AGPROJECTTRIVIA\AGPROJECTTRIVIA\PROJECT\VALIDATOR.CPP|C:\USERS\MAGSHIMIM\DESKTOP\PROJECT\AGPROJECTTRIVIA\AGPROJECTTRIVIA\PROJECT\WSAINITIALIZER.CPP
C:\USERS\MAGSHIMIM\DESKTOP\PROJECT\AGPROJECTTRIVIA\AGPROJECTTRIVIA\PROJECT\DEBUG\VC141.PDB
C:\USERS\MAGSHIMIM\DESKTOP\PROJECT\AGPROJECTTRIVIA\AGPROJECTTRIVIA\PROJECT\DEBUG\VC141.IDB
C:\USERS\MAGSHIMIM\DESKTOP\PROJECT\AGPROJECTTRIVIA\AGPROJECTTRIVIA\PROJECT\DEBUG\WSAINITIALIZER.OBJ
C:\USERS\MAGSHIMIM\DESKTOP\PROJECT\AGPROJECTTRIVIA\AGPROJECTTRIVIA\PROJECT\DEBUG\VALIDATOR.OBJ
C:\USERS\MAGSHIMIM\DESKTOP\PROJECT\AGPROJECTTRIVIA\AGPROJECTTRIVIA\PROJECT\DEBUG\USER.OBJ
C:\USERS\MAGSHIMIM\DESKTOP\PROJECT\AGPROJECTTRIVIA\AGPROJECTTRIVIA\PROJECT\DEBUG\TRIVIAPROJECT.OBJ
C:\USERS\MAGSHIMIM\DESKTOP\PROJECT\AGPROJECTTRIVIA\AGPROJECTTRIVIA\PROJECT\DEBUG\ROOM.OBJ
C:\USERS\MAGSHIMIM\DESKTOP\PROJECT\AGPROJECTTRIVIA\AGPROJECTTRIVIA\PROJECT\DEBUG\RECIEVEDMESSAGE.OBJ
C:\USERS\MAGSHIMIM\DESKTOP\PROJECT\AGPROJECTTRIVIA\AGPROJECTTRIVIA\PROJECT\DEBUG\QUESTION.OBJ
C:\USERS\MAGSHIMIM\DESKTOP\PROJECT\AGPROJECTTRIVIA\AGPROJECTTRIVIA\PROJECT\DEBUG\MTSERVER.OBJ
C:\USERS\MAGSHIMIM\DESKTOP\PROJECT\AGPROJECTTRIVIA\AGPROJECTTRIVIA\PROJECT\DEBUG\MAGSHDOCUMENT.OBJ
C:\USERS\MAGSHIMIM\DESKTOP\PROJECT\AGPROJECTTRIVIA\AGPROJECTTRIVIA\PROJECT\DEBUG\HELPER.OBJ
C:\USERS\MAGSHIMIM\DESKTOP\PROJECT\AGPROJECTTRIVIA\AGPROJECTTRIVIA\PROJECT\DEBUG\GAME.OBJ
C:\USERS\MAGSHIMIM\DESKTOP\PROJECT\AGPROJECTTRIVIA\AGPROJECTTRIVIA\PROJECT\DEBUG\DATABASE.OBJ
^C:\USERS\MAGSHIMIM\DESKTOP\PROJECT\AGPROJECTTRIVIA\AGPROJECTTRIVIA\PROJECT\GAME.CPP
C:\USERS\MAGSHIMIM\DESKTOP\PROJECT\AGPROJECTTRIVIA\AGPROJECTTRIVIA\PROJECT\DEBUG\VC141.PDB
^C:\USERS\MAGSHIMIM\DESKTOP\PROJECT\AGPROJECTTRIVIA\AGPROJECTTRIVIA\PROJECT\HELPER.CPP
C:\USERS\MAGSHIMIM\DESKTOP\PROJECT\AGPROJECTTRIVIA\AGPROJECTTRIVIA\PROJECT\DEBUG\VC141.PDB
^C:\USERS\MAGSHIMIM\DESKTOP\PROJECT\AGPROJECTTRIVIA\AGPROJECTTRIVIA\PROJECT\MAGSHDOCUMENT.CPP
C:\USERS\MAGSHIMIM\DESKTOP\PROJECT\AGPROJECTTRIVIA\AGPROJECTTRIVIA\PROJECT\DEBUG\VC141.PDB
^C:\USERS\MAGSHIMIM\DESKTOP\PROJECT\AGPROJECTTRIVIA\AGPROJECTTRIVIA\PROJECT\MTSERVER.CPP
C:\USERS\MAGSHIMIM\DESKTOP\PROJECT\AGPROJECTTRIVIA\AGPROJECTTRIVIA\PROJECT\DEBUG\VC141.PDB
^C:\USERS\MAGSHIMIM\DESKTOP\PROJECT\AGPROJECTTRIVIA\AGPROJECTTRIVIA\PROJECT\QUESTION.CPP
C:\USERS\MAGSHIMIM\DESKTOP\PROJECT\AGPROJECTTRIVIA\AGPROJECTTRIVIA\PROJECT\DEBUG\VC141.PDB
^C:\USERS\MAGSHIMIM\DESKTOP\PROJECT\AGPROJECTTRIVIA\AGPROJECTTRIVIA\PROJECT\RECIEVEDMESSAGE.CPP
C:\USERS\MAGSHIMIM\DESKTOP\PROJECT\AGPROJECTTRIVIA\AGPROJECTTRIVIA\PROJECT\DEBUG\VC141.PDB
^C:\USERS\MAGSHIMIM\DESKTOP\PROJECT\AGPROJECTTRIVIA\AGPROJECTTRIVIA\PROJECT\ROOM.CPP
C:\USERS\MAGSHIMIM\DESKTOP\PROJECT\AGPROJECTTRIVIA\AGPROJECTTRIVIA\PROJECT\DEBUG\VC141.PDB
^C:\USERS\MAGSHIMIM\DESKTOP\PROJECT\AGPROJECTTRIVIA\AGPROJECTTRIVIA\PROJECT\TRIVIAPROJECT.CPP
C:\USERS\MAGSHIMIM\DESKTOP\PROJECT\AGPROJECTTRIVIA\AGPROJECTTRIVIA\PROJECT\DEBUG\VC141.PDB
^C:\USERS\MAGSHIMIM\DESKTOP\PROJECT\AGPROJECTTRIVIA\AGPROJECTTRIVIA\PROJECT\USER.CPP
C:\USERS\MAGSHIMIM\DESKTOP\PROJECT\AGPROJECTTRIVIA\AGPROJECTTRIVIA\PROJECT\DEBUG\VC141.PDB
^C:\USERS\MAGSHIMIM\DESKTOP\PROJECT\AGPROJECTTRIVIA\AGPROJECTTRIVIA\PROJECT\VALIDATOR.CPP
C:\USERS\MAGSHIMIM\DESKTOP\PROJECT\AGPROJECTTRIVIA\AGPROJECTTRIVIA\PROJECT\DEBUG\VC141.PDB
^C:\USERS\MAGSHIMIM\DESKTOP\PROJECT\AGPROJECTTRIVIA\AGPROJECTTRIVIA\PROJECT\WSAINITIALIZER.CPP
C:\USERS\MAGSHIMIM\DESKTOP\PROJECT\AGPROJECTTRIVIA\AGPROJECTTRIVIA\PROJECT\DEBUG\VC141.PDB
^C:\USERS\MAGSHIMIM\DESKTOP\PROJECT\AGPROJECTTRIVIA\AGPROJECTTRIVIA\PROJECT\SQLITE3.C
C:\USERS\MAGSHIMIM\DESKTOP\PROJECT\AGPROJECTTRIVIA\AGPROJECTTRIVIA\PROJECT\DEBUG\VC141.PDB
C:\USERS\MAGSHIMIM\DESKTOP\PROJECT\AGPROJECTTRIVIA\AGPROJECTTRIVIA\PROJECT\DEBUG\VC141.IDB
C:\USERS\MAGSHIMIM\DESKTOP\PROJECT\AGPROJECTTRIVIA\AGPROJECTTRIVIA\PROJECT\DEBUG\SQLITE3.OBJ
^C:\USERS\MAGSHIMIM\DESKTOP\PROJECT\AGPROJECTTRIVIA\AGPROJECTTRIVIA\PROJECT\DATABASE.CPP
C:\USERS\MAGSHIMIM\DESKTOP\PROJECT\AGPROJECTTRIVIA\AGPROJECTTRIVIA\PROJECT\DEBUG\VC141.PDB
C:\USERS\MAGSHIMIM\DESKTOP\PROJECT\AGPROJECTTRIVIA\AGPROJECTTRIVIA\PROJECT\DEBUG\VC141.IDB
C:\USERS\MAGSHIMIM\DESKTOP\PROJECT\AGPROJECTTRIVIA\AGPROJECTTRIVIA\PROJECT\DEBUG\DATABASE.OBJ
